%YAML 1.1
%TAG !u! tag:unity3d.com,2011:
--- !u!1 &650485732629600455
GameObject:
  m_ObjectHideFlags: 0
  m_CorrespondingSourceObject: {fileID: 0}
  m_PrefabInstance: {fileID: 0}
  m_PrefabAsset: {fileID: 0}
  serializedVersion: 6
  m_Component:
  - component: {fileID: 5971727859042424844}
  - component: {fileID: 1969644832206710983}
  m_Layer: 31
  m_Name: SunnyLandForest
  m_TagString: Untagged
  m_Icon: {fileID: 0}
  m_NavMeshLayer: 0
  m_StaticEditorFlags: 0
  m_IsActive: 1
--- !u!4 &5971727859042424844
Transform:
  m_ObjectHideFlags: 0
  m_CorrespondingSourceObject: {fileID: 0}
  m_PrefabInstance: {fileID: 0}
  m_PrefabAsset: {fileID: 0}
  m_GameObject: {fileID: 650485732629600455}
  m_LocalRotation: {x: 0, y: 0, z: 0, w: 1}
  m_LocalPosition: {x: 0, y: 0, z: 0}
  m_LocalScale: {x: 1, y: 1, z: 1}
  m_Children:
  - {fileID: 832073273892230365}
  m_Father: {fileID: 0}
  m_RootOrder: 0
  m_LocalEulerAnglesHint: {x: 0, y: 0, z: 0}
--- !u!156049354 &1969644832206710983
Grid:
  m_ObjectHideFlags: 0
  m_CorrespondingSourceObject: {fileID: 0}
  m_PrefabInstance: {fileID: 0}
  m_PrefabAsset: {fileID: 0}
  m_GameObject: {fileID: 650485732629600455}
  m_Enabled: 1
  m_CellSize: {x: 3, y: 4, z: 0}
  m_CellGap: {x: 0, y: 0, z: 0}
  m_CellLayout: 0
  m_CellSwizzle: 0
--- !u!1 &2420718522666726892
GameObject:
  m_ObjectHideFlags: 0
  m_CorrespondingSourceObject: {fileID: 0}
  m_PrefabInstance: {fileID: 0}
  m_PrefabAsset: {fileID: 0}
  serializedVersion: 6
  m_Component:
  - component: {fileID: 832073273892230365}
  - component: {fileID: 899983931854375848}
  - component: {fileID: 5380662882324944470}
  m_Layer: 31
  m_Name: Layer1
  m_TagString: Untagged
  m_Icon: {fileID: 0}
  m_NavMeshLayer: 0
  m_StaticEditorFlags: 0
  m_IsActive: 1
--- !u!4 &832073273892230365
Transform:
  m_ObjectHideFlags: 0
  m_CorrespondingSourceObject: {fileID: 0}
  m_PrefabInstance: {fileID: 0}
  m_PrefabAsset: {fileID: 0}
  m_GameObject: {fileID: 2420718522666726892}
  m_LocalRotation: {x: -0, y: -0, z: -0, w: 1}
  m_LocalPosition: {x: 0, y: 0, z: 0}
  m_LocalScale: {x: 1, y: 1, z: 1}
  m_Children: []
  m_Father: {fileID: 5971727859042424844}
  m_RootOrder: 0
  m_LocalEulerAnglesHint: {x: 0, y: 0, z: 0}
--- !u!1839735485 &899983931854375848
Tilemap:
  m_ObjectHideFlags: 0
  m_CorrespondingSourceObject: {fileID: 0}
  m_PrefabInstance: {fileID: 0}
  m_PrefabAsset: {fileID: 0}
  m_GameObject: {fileID: 2420718522666726892}
  m_Enabled: 1
  m_Tiles:
  - first: {x: -1, y: -3, z: 0}
    second:
      serializedVersion: 2
      m_TileIndex: 15
      m_TileSpriteIndex: 15
      m_TileMatrixIndex: 0
      m_TileColorIndex: 0
      m_TileObjectToInstantiateIndex: 65535
      m_AllTileFlags: 1073741825
  - first: {x: 0, y: -3, z: 0}
    second:
      serializedVersion: 2
      m_TileIndex: 16
      m_TileSpriteIndex: 16
      m_TileMatrixIndex: 0
      m_TileColorIndex: 0
      m_TileObjectToInstantiateIndex: 65535
      m_AllTileFlags: 1073741825
  - first: {x: 1, y: -3, z: 0}
    second:
      serializedVersion: 2
      m_TileIndex: 17
      m_TileSpriteIndex: 17
      m_TileMatrixIndex: 0
      m_TileColorIndex: 0
      m_TileObjectToInstantiateIndex: 65535
      m_AllTileFlags: 1073741825
  - first: {x: 2, y: -3, z: 0}
    second:
      serializedVersion: 2
      m_TileIndex: 18
      m_TileSpriteIndex: 18
      m_TileMatrixIndex: 0
      m_TileColorIndex: 0
      m_TileObjectToInstantiateIndex: 65535
      m_AllTileFlags: 1073741825
  - first: {x: -1, y: -2, z: 0}
    second:
      serializedVersion: 2
      m_TileIndex: 10
      m_TileSpriteIndex: 10
      m_TileMatrixIndex: 0
      m_TileColorIndex: 0
      m_TileObjectToInstantiateIndex: 65535
      m_AllTileFlags: 1073741825
  - first: {x: 0, y: -2, z: 0}
    second:
      serializedVersion: 2
      m_TileIndex: 11
      m_TileSpriteIndex: 11
      m_TileMatrixIndex: 0
      m_TileColorIndex: 0
      m_TileObjectToInstantiateIndex: 65535
      m_AllTileFlags: 1073741825
  - first: {x: 1, y: -2, z: 0}
    second:
      serializedVersion: 2
      m_TileIndex: 12
      m_TileSpriteIndex: 12
      m_TileMatrixIndex: 0
      m_TileColorIndex: 0
      m_TileObjectToInstantiateIndex: 65535
      m_AllTileFlags: 1073741825
  - first: {x: 2, y: -2, z: 0}
    second:
      serializedVersion: 2
      m_TileIndex: 13
      m_TileSpriteIndex: 13
      m_TileMatrixIndex: 0
      m_TileColorIndex: 0
      m_TileObjectToInstantiateIndex: 65535
      m_AllTileFlags: 1073741825
  - first: {x: 3, y: -2, z: 0}
    second:
      serializedVersion: 2
      m_TileIndex: 14
      m_TileSpriteIndex: 14
      m_TileMatrixIndex: 0
      m_TileColorIndex: 0
      m_TileObjectToInstantiateIndex: 65535
      m_AllTileFlags: 1073741825
  - first: {x: -1, y: -1, z: 0}
    second:
      serializedVersion: 2
      m_TileIndex: 5
      m_TileSpriteIndex: 5
      m_TileMatrixIndex: 0
      m_TileColorIndex: 0
      m_TileObjectToInstantiateIndex: 65535
      m_AllTileFlags: 1073741825
  - first: {x: 0, y: -1, z: 0}
    second:
      serializedVersion: 2
      m_TileIndex: 6
      m_TileSpriteIndex: 6
      m_TileMatrixIndex: 0
      m_TileColorIndex: 0
      m_TileObjectToInstantiateIndex: 65535
      m_AllTileFlags: 1073741825
  - first: {x: 1, y: -1, z: 0}
    second:
      serializedVersion: 2
      m_TileIndex: 7
      m_TileSpriteIndex: 7
      m_TileMatrixIndex: 0
      m_TileColorIndex: 0
      m_TileObjectToInstantiateIndex: 65535
      m_AllTileFlags: 1073741825
  - first: {x: 2, y: -1, z: 0}
    second:
      serializedVersion: 2
      m_TileIndex: 8
      m_TileSpriteIndex: 8
      m_TileMatrixIndex: 0
      m_TileColorIndex: 0
      m_TileObjectToInstantiateIndex: 65535
      m_AllTileFlags: 1073741825
  - first: {x: 3, y: -1, z: 0}
    second:
      serializedVersion: 2
      m_TileIndex: 9
      m_TileSpriteIndex: 9
      m_TileMatrixIndex: 0
      m_TileColorIndex: 0
      m_TileObjectToInstantiateIndex: 65535
      m_AllTileFlags: 1073741825
  - first: {x: -1, y: 0, z: 0}
    second:
      serializedVersion: 2
      m_TileIndex: 0
      m_TileSpriteIndex: 0
      m_TileMatrixIndex: 0
      m_TileColorIndex: 0
      m_TileObjectToInstantiateIndex: 65535
      m_AllTileFlags: 1073741825
  - first: {x: 0, y: 0, z: 0}
    second:
      serializedVersion: 2
      m_TileIndex: 1
      m_TileSpriteIndex: 1
      m_TileMatrixIndex: 0
      m_TileColorIndex: 0
      m_TileObjectToInstantiateIndex: 65535
      m_AllTileFlags: 1073741825
  - first: {x: 1, y: 0, z: 0}
    second:
      serializedVersion: 2
      m_TileIndex: 2
      m_TileSpriteIndex: 2
      m_TileMatrixIndex: 0
      m_TileColorIndex: 0
      m_TileObjectToInstantiateIndex: 65535
      m_AllTileFlags: 1073741825
  - first: {x: 2, y: 0, z: 0}
    second:
      serializedVersion: 2
      m_TileIndex: 3
      m_TileSpriteIndex: 3
      m_TileMatrixIndex: 0
      m_TileColorIndex: 0
      m_TileObjectToInstantiateIndex: 65535
      m_AllTileFlags: 1073741825
  - first: {x: 3, y: 0, z: 0}
    second:
      serializedVersion: 2
      m_TileIndex: 4
      m_TileSpriteIndex: 4
      m_TileMatrixIndex: 0
      m_TileColorIndex: 0
      m_TileObjectToInstantiateIndex: 65535
      m_AllTileFlags: 1073741825
  m_AnimatedTiles: {}
  m_TileAssetArray:
  - m_RefCount: 1
    m_Data: {fileID: 11400000, guid: de493eb4ac2f3304ab0a8afee2c858c2, type: 2}
  - m_RefCount: 1
    m_Data: {fileID: 11400000, guid: 38d76f985d46f864a82fbe334bd1cf51, type: 2}
  - m_RefCount: 1
    m_Data: {fileID: 11400000, guid: ba3296e49aa2c5840b14ed71a399f10d, type: 2}
  - m_RefCount: 1
    m_Data: {fileID: 11400000, guid: 430c46a88390c824b84cb1e5627e2e78, type: 2}
  - m_RefCount: 1
    m_Data: {fileID: 11400000, guid: 240b41a6ee2b1a143a29b4c5addc9ef6, type: 2}
  - m_RefCount: 1
    m_Data: {fileID: 11400000, guid: abfcd53099851c746bc662d9f88a3613, type: 2}
  - m_RefCount: 1
    m_Data: {fileID: 11400000, guid: 8c87722e850ef3f4692d5ed36d05da49, type: 2}
  - m_RefCount: 1
    m_Data: {fileID: 11400000, guid: ee53f3ce77be28f439c8cf3cdfebe7a7, type: 2}
  - m_RefCount: 1
    m_Data: {fileID: 11400000, guid: d3b6a377b4224be40b0c9f91856fdfce, type: 2}
  - m_RefCount: 1
    m_Data: {fileID: 11400000, guid: ecf13685deeaf644bbe7857f428fd30b, type: 2}
  - m_RefCount: 1
    m_Data: {fileID: 11400000, guid: fcd3b9784ab972f43910c2237ff2bd48, type: 2}
  - m_RefCount: 1
    m_Data: {fileID: 11400000, guid: 17b26ba59b5c88945981eaf7223d09ea, type: 2}
  - m_RefCount: 1
    m_Data: {fileID: 11400000, guid: 528d475f94a18754c8d15339483f33fb, type: 2}
  - m_RefCount: 1
    m_Data: {fileID: 11400000, guid: a0eecd4f439fb174d9aa9dc2b8f68b75, type: 2}
  - m_RefCount: 1
    m_Data: {fileID: 11400000, guid: b53a417049ca72b4f9f87b2e0c50f001, type: 2}
  - m_RefCount: 1
    m_Data: {fileID: 11400000, guid: 5056cc0da7ae4b44fab09d5c03ba009f, type: 2}
  - m_RefCount: 1
    m_Data: {fileID: 11400000, guid: 6126ab99e63eb404c9fa2008ff495704, type: 2}
  - m_RefCount: 1
    m_Data: {fileID: 11400000, guid: 50206918603a9004c8183b356a200bbf, type: 2}
  - m_RefCount: 1
    m_Data: {fileID: 11400000, guid: 99ad28d60475901469452df50105349d, type: 2}
  m_TileSpriteArray:
  - m_RefCount: 1
    m_Data: {fileID: 21300000, guid: 2eeb0d4e8888f48459040781a511455e, type: 3}
  - m_RefCount: 1
    m_Data: {fileID: 21300002, guid: 2eeb0d4e8888f48459040781a511455e, type: 3}
  - m_RefCount: 1
    m_Data: {fileID: 21300004, guid: 2eeb0d4e8888f48459040781a511455e, type: 3}
  - m_RefCount: 1
    m_Data: {fileID: 21300006, guid: 2eeb0d4e8888f48459040781a511455e, type: 3}
  - m_RefCount: 1
    m_Data: {fileID: 21300008, guid: 2eeb0d4e8888f48459040781a511455e, type: 3}
  - m_RefCount: 1
    m_Data: {fileID: 21300010, guid: 2eeb0d4e8888f48459040781a511455e, type: 3}
  - m_RefCount: 1
    m_Data: {fileID: 21300012, guid: 2eeb0d4e8888f48459040781a511455e, type: 3}
  - m_RefCount: 1
    m_Data: {fileID: 21300014, guid: 2eeb0d4e8888f48459040781a511455e, type: 3}
  - m_RefCount: 1
    m_Data: {fileID: 21300016, guid: 2eeb0d4e8888f48459040781a511455e, type: 3}
  - m_RefCount: 1
    m_Data: {fileID: 21300018, guid: 2eeb0d4e8888f48459040781a511455e, type: 3}
  - m_RefCount: 1
    m_Data: {fileID: 21300020, guid: 2eeb0d4e8888f48459040781a511455e, type: 3}
  - m_RefCount: 1
    m_Data: {fileID: 21300022, guid: 2eeb0d4e8888f48459040781a511455e, type: 3}
  - m_RefCount: 1
    m_Data: {fileID: 21300024, guid: 2eeb0d4e8888f48459040781a511455e, type: 3}
  - m_RefCount: 1
    m_Data: {fileID: 21300026, guid: 2eeb0d4e8888f48459040781a511455e, type: 3}
  - m_RefCount: 1
    m_Data: {fileID: 21300028, guid: 2eeb0d4e8888f48459040781a511455e, type: 3}
  - m_RefCount: 1
    m_Data: {fileID: 21300030, guid: 2eeb0d4e8888f48459040781a511455e, type: 3}
  - m_RefCount: 1
    m_Data: {fileID: 21300032, guid: 2eeb0d4e8888f48459040781a511455e, type: 3}
  - m_RefCount: 1
    m_Data: {fileID: 21300034, guid: 2eeb0d4e8888f48459040781a511455e, type: 3}
  - m_RefCount: 1
    m_Data: {fileID: 21300036, guid: 2eeb0d4e8888f48459040781a511455e, type: 3}
  m_TileMatrixArray:
  - m_RefCount: 19
    m_Data:
      e00: 1
      e01: 0
      e02: 0
      e03: 0
      e10: 0
      e11: 1
      e12: 0
      e13: 0
      e20: 0
      e21: 0
      e22: 1
      e23: 0
      e30: 0
      e31: 0
      e32: 0
      e33: 1
  m_TileColorArray:
  - m_RefCount: 19
    m_Data: {r: 1, g: 1, b: 1, a: 1}
  m_TileObjectToInstantiateArray: []
  m_AnimationFrameRate: 1
  m_Color: {r: 1, g: 1, b: 1, a: 1}
  m_Origin: {x: -1, y: -3, z: 0}
  m_Size: {x: 5, y: 5, z: 1}
  m_TileAnchor: {x: 0.5, y: 0.5, z: 0}
  m_TileOrientation: 0
  m_TileOrientationMatrix:
    e00: 1
    e01: 0
    e02: 0
    e03: 0
    e10: 0
    e11: 1
    e12: 0
    e13: 0
    e20: 0
    e21: 0
    e22: 1
    e23: 0
    e30: 0
    e31: 0
    e32: 0
    e33: 1
--- !u!483693784 &5380662882324944470
TilemapRenderer:
  m_ObjectHideFlags: 0
  m_CorrespondingSourceObject: {fileID: 0}
  m_PrefabInstance: {fileID: 0}
  m_PrefabAsset: {fileID: 0}
  m_GameObject: {fileID: 2420718522666726892}
  m_Enabled: 0
  m_CastShadows: 0
  m_ReceiveShadows: 0
  m_DynamicOccludee: 0
  m_MotionVectors: 1
  m_LightProbeUsage: 0
  m_ReflectionProbeUsage: 0
  m_RayTracingMode: 0
  m_RenderingLayerMask: 1
  m_RendererPriority: 0
  m_Materials:
  - {fileID: 10754, guid: 0000000000000000f000000000000000, type: 0}
  m_StaticBatchInfo:
    firstSubMesh: 0
    subMeshCount: 0
  m_StaticBatchRoot: {fileID: 0}
  m_ProbeAnchor: {fileID: 0}
  m_LightProbeVolumeOverride: {fileID: 0}
  m_ScaleInLightmap: 1
  m_ReceiveGI: 1
  m_PreserveUVs: 0
  m_IgnoreNormalsForChartDetection: 0
  m_ImportantGI: 0
  m_StitchLightmapSeams: 1
  m_SelectedEditorRenderState: 0
  m_MinimumChartSize: 4
  m_AutoUVMaxDistance: 0.5
  m_AutoUVMaxAngle: 89
  m_LightmapParameters: {fileID: 0}
  m_SortingLayerID: 0
  m_SortingLayer: 0
  m_SortingOrder: 0
  m_ChunkSize: {x: 32, y: 32, z: 32}
  m_ChunkCullingBounds: {x: 2, y: 2.46875, z: 0}
  m_MaxChunkCount: 16
  m_MaxFrameAge: 16
  m_SortOrder: 0
  m_Mode: 0
  m_DetectChunkCullingBounds: 0
  m_MaskInteraction: 0
--- !u!114 &165774476433457194
MonoBehaviour:
  m_ObjectHideFlags: 0
  m_CorrespondingSourceObject: {fileID: 0}
  m_PrefabInstance: {fileID: 0}
  m_PrefabAsset: {fileID: 0}
  m_GameObject: {fileID: 0}
  m_Enabled: 1
  m_EditorHideFlags: 0
  m_Script: {fileID: 12395, guid: 0000000000000000e000000000000000, type: 0}
  m_Name: Palette Settings
  m_EditorClassIdentifier: 
  cellSizing: 0
